<?xml version="1.0" standalone="no"?>
<!DOCTYPE svg PUBLIC "-//W3C//DTD SVG 20010904//EN"
 "http://www.w3.org/TR/2001/REC-SVG-20010904/DTD/svg10.dtd">
<svg version="1.0" xmlns="http://www.w3.org/2000/svg"
 width="1203.000000pt" height="1203.000000pt" viewBox="0 0 1203.000000 1203.000000"
 preserveAspectRatio="xMidYMid meet">
<metadata>
Created by potrace 1.11, written by Peter Selinger 2001-2013
</metadata>
<g transform="translate(0.000000,1203.000000) scale(0.100000,-0.100000)"
fill="#000000" stroke="none">
<path d="M6210 12009 c-1199 -48 -2343 -475 -3288 -1227 -51 -40 -92 -77 -90
-80 2 -4 131 -134 288 -288 l285 -282 110 84 c1171 896 2709 1201 4145 824
1550 -407 2796 -1577 3304 -3104 285 -855 320 -1801 100 -2677 -89 -356 -193
-639 -359 -974 -143 -289 -268 -493 -455 -745 l-88 -117 289 -289 c158 -158
290 -286 292 -284 473 597 772 1142 993 1808 133 401 211 765 261 1222 26 235
26 864 0 1100 -76 694 -243 1287 -532 1885 -441 913 -1125 1689 -1985 2251
-816 533 -1835 860 -2771 889 -96 3 -205 7 -244 8 -38 2 -153 0 -255 -4z"/>
<path d="M6026 10385 c-309 -34 -578 -92 -871 -190 -392 -131 -721 -298 -1061
-539 l-126 -90 293 -285 292 -286 117 77 c123 81 351 204 486 261 639 273
1368 332 2039 166 436 -108 860 -317 1215 -599 134 -106 393 -365 498 -497
563 -712 795 -1606 651 -2507 -70 -434 -237 -867 -475 -1228 l-70 -107 225
-223 c124 -123 256 -252 292 -286 l66 -63 75 108 c417 594 655 1239 724 1963
22 226 14 650 -15 870 -62 457 -178 839 -376 1245 -537 1100 -1559 1895 -2759
2144 -285 60 -421 73 -771 77 -226 2 -358 -1 -449 -11z"/>
<path d="M1230 9123 c-750 -949 -1169 -2078 -1219 -3283 -48 -1157 266 -2305
894 -3270 572 -879 1407 -1602 2345 -2030 1121 -512 2364 -642 3570 -375 808
180 1587 548 2244 1063 l108 85 -288 288 -288 288 -45 -34 c-567 -427 -1114
-693 -1765 -860 -339 -87 -625 -128 -995 -145 -1016 -44 -2029 241 -2865 807
-272 184 -472 349 -702 578 -789 787 -1257 1772 -1381 2905 -27 250 -24 759 6
1009 82 683 276 1280 604 1860 84 148 264 420 363 546 l71 91 -286 292 -286
293 -85 -108z"/>
<path d="M6130 8775 c-340 -44 -642 -147 -930 -315 l-72 -42 88 -90 c49 -49
186 -183 304 -298 l216 -208 69 30 c100 42 257 86 377 104 143 22 415 15 552
-15 620 -133 1082 -598 1218 -1224 30 -138 32 -463 5 -602 -20 -99 -68 -253
-102 -331 l-23 -51 157 -154 c86 -85 222 -219 302 -298 l146 -143 51 88 c220
385 324 813 309 1264 -16 454 -138 843 -382 1220 -364 563 -957 946 -1635
1056 -134 22 -514 27 -650 9z"/>
<path d="M2376 7977 c-398 -546 -657 -1215 -736 -1902 -29 -250 -29 -669 0
-910 129 -1063 650 -1999 1485 -2664 1049 -837 2471 -1083 3755 -651 352 118
659 271 970 482 80 54 154 105 165 113 19 15 6 29 -269 304 l-289 289 -121
-80 c-237 -156 -592 -314 -885 -394 -762 -209 -1589 -126 -2290 231 -896 456
-1523 1309 -1690 2300 -55 324 -57 713 -5 1040 34 214 106 478 186 680 81 205
224 473 337 632 l38 54 -285 289 c-156 160 -286 290 -287 290 -2 0 -37 -46
-79 -103z"/>
<path d="M5760 6879 c-745 -153 -1361 -279 -1368 -281 -10 -2 1397 -1416 1963
-1971 137 -135 140 -137 147 -110 32 124 638 2624 638 2632 0 6 -6 10 -12 10
-7 -1 -623 -127 -1368 -280z"/>
<path d="M3587 6899 c-185 -298 -308 -655 -347 -1011 -15 -142 -12 -408 6
-550 46 -364 165 -692 362 -998 176 -273 453 -547 737 -727 728 -460 1699
-481 2443 -51 48 27 89 51 90 53 2 2 -130 139 -293 304 l-297 300 -37 -16
c-79 -34 -271 -92 -356 -108 -285 -50 -605 -18 -871 90 -546 220 -932 746
-971 1326 -19 269 25 536 124 759 l24 54 -300 299 c-297 298 -299 300 -314
276z"/>
</g>
</svg>
