<svg xmlns="http://www.w3.org/2000/svg" viewBox="0 0 64 64" aria-labelledby="title"
aria-describedby="desc" role="img" xmlns:xlink="http://www.w3.org/1999/xlink">
  <title>Add to Basket</title>
  <desc>A line styled icon from Orion Icon Library.</desc>
  <path data-name="layer2"
  fill="none" stroke="#33cc33" stroke-miterlimit="10" stroke-width="2" d="M55.7 33.3L58 22M6 22l6 30h19.1M26 2L8 22M38 2l18 20M2 22h60"
  stroke-linejoin="round" stroke-linecap="round"></path>
  <ellipse data-name="layer1" cx="46" cy="46" rx="16" ry="16" fill="none"
  stroke="#003399" stroke-miterlimit="10" stroke-width="2" stroke-linejoin="round"
  stroke-linecap="round"></ellipse>
  <path data-name="layer1" fill="none" stroke="#003399" stroke-miterlimit="10"
  stroke-width="2" d="M52 44l-6-6-6 6m6-6v16" stroke-linejoin="round" stroke-linecap="round"></path>
</svg>