<svg xmlns="http://www.w3.org/2000/svg" viewBox="0 0 64 64" aria-labelledby="title"
aria-describedby="desc" role="img" xmlns:xlink="http://www.w3.org/1999/xlink">
  <title>Airport Trolley</title>
  <desc>A line styled icon from Orion Icon Library.</desc>
  <path data-name="layer2"
  fill="none" stroke="#33cc33" stroke-miterlimit="10" stroke-width="2" d="M2 9h6l8 36h42"
  stroke-linejoin="round" stroke-linecap="round"></path>
  <circle data-name="layer2" cx="22" cy="57" r="4" fill="none" stroke="#33cc33"
  stroke-miterlimit="10" stroke-width="2" stroke-linejoin="round" stroke-linecap="round"></circle>
  <circle data-name="layer2" cx="48" cy="57" r="4" fill="none"
  stroke="#33cc33" stroke-miterlimit="10" stroke-width="2" stroke-linejoin="round"
  stroke-linecap="round"></circle>
  <rect data-name="layer1" x="22" y="11" width="40" height="26"
  rx="3" ry="3" fill="none" stroke="#003399" stroke-miterlimit="10" stroke-width="2"
  stroke-linejoin="round" stroke-linecap="round"></rect>
  <path data-name="layer1" d="M36 11V5a2 2 0 0 1 2-2h8a2 2 0 0 1 2 2v6M22 23h40m-20-2v6"
  fill="none" stroke="#003399" stroke-miterlimit="10" stroke-width="2" stroke-linejoin="round"
  stroke-linecap="round"></path>
</svg>