<svg xmlns="http://www.w3.org/2000/svg" viewBox="0 0 64 64" aria-labelledby="title"
aria-describedby="desc" role="img" xmlns:xlink="http://www.w3.org/1999/xlink">
  <title>Alarm Sound</title>
  <desc>A line styled icon from Orion Icon Library.</desc>
  <circle data-name="layer2"
  cx="32" cy="32" r="14" fill="none" stroke="#33cc33" stroke-linecap="round"
  stroke-miterlimit="10" stroke-width="2" stroke-linejoin="round"></circle>
  <path data-name="layer2" fill="none" stroke="#33cc33" stroke-linecap="round"
  stroke-miterlimit="10" stroke-width="2" d="M32 24v8l4 4" stroke-linejoin="round"></path>
  <path data-name="layer1" d="M45.282 14.46A21.966 21.966 0 0 1 54 32m-44 0a21.965 21.965 0 0 1 8.714-17.536m32.273-5.692A29.941 29.941 0 0 1 62 32M2 32A29.939 29.939 0 0 1 12.917 8.851"
  fill="none" stroke="#003399" stroke-linecap="round" stroke-miterlimit="10"
  stroke-width="2" stroke-linejoin="round"></path>
</svg>