<svg xmlns="http://www.w3.org/2000/svg" viewBox="0 0 64 64" aria-labelledby="title"
aria-describedby="desc" role="img" xmlns:xlink="http://www.w3.org/1999/xlink">
  <title>Approve Comment</title>
  <desc>A line styled icon from Orion Icon Library.</desc>
  <path data-name="layer2"
  fill="none" stroke="#33cc33" stroke-linecap="round" stroke-linejoin="round"
  stroke-width="2" d="M56 32V9H2v36h14v9.9L26.8 45H32"></path>
  <circle data-name="layer1" cx="47" cy="44" r="15" fill="none" stroke="#003399"
  stroke-linecap="round" stroke-linejoin="round" stroke-width="2"></circle>
  <path data-name="layer1" d="M53 41.1l-8 8-4-4" fill="none" stroke="#003399"
  stroke-linecap="round" stroke-linejoin="round" stroke-width="2"></path>
</svg>