<svg xmlns="http://www.w3.org/2000/svg" viewBox="0 0 64 64" aria-labelledby="title"
aria-describedby="desc" role="img" xmlns:xlink="http://www.w3.org/1999/xlink">
  <title>Arrow Right Up</title>
  <desc>A line styled icon from Orion Icon Library.</desc>
  <path data-name="layer1"
  fill="none" stroke="#003399" stroke-miterlimit="10" stroke-width="2" d="M37.756 22H25.001v-6H48v23h-6V26.241L22.243 45.998 18 41.756 37.756 22z"
  stroke-linejoin="round" stroke-linecap="round"></path>
</svg>