<svg xmlns="http://www.w3.org/2000/svg" viewBox="0 0 64 64" aria-labelledby="title"
aria-describedby="desc" role="img" xmlns:xlink="http://www.w3.org/1999/xlink">
  <title>Arrow Up</title>
  <desc>A line styled icon from Orion Icon Library.</desc>
  <path data-name="layer1"
  fill="none" stroke="#003399" stroke-miterlimit="10" stroke-width="2" d="M48 28.001L32 12 16 28.001l4.242 4.242 8.759-8.759V52h6V23.486l8.757 8.757L48 28.001z"
  stroke-linejoin="round" stroke-linecap="round"></path>
</svg>