<svg xmlns="http://www.w3.org/2000/svg" viewBox="0 0 64 64" aria-labelledby="title"
aria-describedby="desc" role="img" xmlns:xlink="http://www.w3.org/1999/xlink">
  <title>Attachment</title>
  <desc>A line styled icon from Orion Icon Library.</desc>
  <path data-name="layer1"
  d="M24.6 45.1l17.3-17.3a6 6 0 0 0 0-8.5 6 6 0 0 0-8.5 0L7.6 45.1a10 10 0 0 0 0 14.1 10 10 0 0 0 14.1 0l33.5-33.4a14 14 0 0 0 0-19.8 14 14 0 0 0-19.8 0l-25 25"
  fill="none" stroke="#003399" stroke-miterlimit="10" stroke-width="2" stroke-linejoin="round"
  stroke-linecap="round"></path>
</svg>