<svg viewBox="0 0 64 64" xmlns="http://www.w3.org/2000/svg" aria-labelledby="title"
aria-describedby="desc" role="img" xmlns:xlink="http://www.w3.org/1999/xlink">
  <title>Ballpoint Pen</title>
  <desc>A line styled icon from Orion Icon Library.</desc>
  <path stroke-width="2"
  stroke-miterlimit="10" stroke="#33cc33" fill="none" d="M26.328 18.566L40.516 4.378a5.4 5.4 0 0 1 7.637 0l1.837 1.839"
  data-name="layer2" stroke-linejoin="round" stroke-linecap="round"></path>
  <path stroke-width="2" stroke-miterlimit="10" stroke="#33cc33"
  fill="none" d="M44.847 26.922L59.67 12.1l.014-.013A5.5 5.5 0 0 0 51.9 4.3L37.067 19.141"
  data-name="layer2" stroke-linejoin="round" stroke-linecap="round"></path>
  <path d="M44.847 26.922l-7.78-7.781-29.6 29.599-4.764 12.567 12.545-4.785 29.599-29.6zM7.467 48.74l7.781 7.782"
  stroke-width="2" stroke-miterlimit="10" stroke="#003399" fill="none" data-name="layer1"
  stroke-linejoin="round" stroke-linecap="round"></path>
</svg>