<svg xmlns="http://www.w3.org/2000/svg" viewBox="0 0 64 64" aria-labelledby="title"
aria-describedby="desc" role="img" xmlns:xlink="http://www.w3.org/1999/xlink">
  <title>Bill</title>
  <desc>A line styled icon from Orion Icon Library.</desc>
  <path data-name="layer1"
  fill="none" stroke="#003399" stroke-miterlimit="10" stroke-width="2" d="M2 14h60v36H2z"
  stroke-linejoin="round" stroke-linecap="round"></path>
  <circle data-name="layer2" cx="32" cy="32" r="8" fill="none" stroke="#33cc33"
  stroke-miterlimit="10" stroke-width="2" stroke-linejoin="round" stroke-linecap="round"></circle>
  <path data-name="layer2" fill="none" stroke="#33cc33" stroke-miterlimit="10"
  stroke-width="2" d="M12 32h4m32 0h4" stroke-linejoin="round" stroke-linecap="round"></path>
  <path data-name="layer1" d="M12 14A10 10 0 0 1 2 24m60 0a10 10 0 0 1-10-10M2 40a10 10 0 0 1 10 10m40 0a10 10 0 0 1 10-10"
  fill="none" stroke="#003399" stroke-miterlimit="10" stroke-width="2" stroke-linejoin="round"
  stroke-linecap="round"></path>
</svg>