<svg xmlns="http://www.w3.org/2000/svg" viewBox="0 0 64 64" aria-labelledby="title"
aria-describedby="desc" role="img" xmlns:xlink="http://www.w3.org/1999/xlink">
  <title>Blogger</title>
  <desc>A color styled icon from Orion Icon Library.</desc>
  <path data-name="layer1"
  d="M59.9 24h-3.6a4.508 4.508 0 0 1-4.3-4C52 8.6 42.8 0 31.3 0H20.8A20.7 20.7 0 0 0 0 20.7v22.7A20.678 20.678 0 0 0 20.8 64h22.4A20.7 20.7 0 0 0 64 43.3V28.7c0-2.3-1.8-4.7-4.1-4.7zM20 16h12a4 4 0 0 1 0 8H20a4 4 0 0 1 0-8zm24 32H20a4 4 0 0 1 0-8h24a4 4 0 0 1 0 8z"
  fill="#f06a35"></path>
</svg>