<svg viewBox="0 0 64 64" xmlns="http://www.w3.org/2000/svg" aria-labelledby="title"
aria-describedby="desc" role="img" xmlns:xlink="http://www.w3.org/1999/xlink">
  <title>Boy</title>
  <desc>A line styled icon from Orion Icon Library.</desc>
  <path stroke-width="2"
  stroke-miterlimit="10" stroke="#003399" fill="none" d="M18 21.485V24c-.346.003-3 .214-3 5 0 .947.393 5.002 3.438 5.002h.003a17.212 17.212 0 0 0 7.168 10.267m11.991 0a17.21 17.21 0 0 0 7.17-10.27C47.793 33.962 49 31 49 29c0-.94.014-4.947-3-5v-3.813"
  data-name="layer1" stroke-linejoin="round" stroke-linecap="round"></path>
  <path stroke-width="2" stroke-miterlimit="10" stroke="#003399"
  fill="none" d="M24 43.11V44c0 2 .6 4.942-10.39 7C2 53.174 2 62 2 62h60s0-8.66-12.422-11C38.863 48.981 39 46 39 44v-.718"
  data-name="layer1" stroke-linejoin="round" stroke-linecap="round"></path>
  <path stroke-width="2" stroke-miterlimit="10" stroke="#003399"
  fill="none" d="M20 49.238C22.031 51.268 25.707 56 32 56s10.174-4.639 12-6.464"
  data-name="layer1" stroke-linejoin="round" stroke-linecap="round"></path>
  <path stroke-width="2" stroke-miterlimit="10" stroke="#33cc33"
  fill="none" d="M16 20.539s7-6.54 16-6.54 16 6.403 16 6.403" data-name="layer2"
  stroke-linejoin="round" stroke-linecap="round"></path>
  <path stroke-width="2" stroke-miterlimit="10" stroke="#33cc33"
  fill="none" d="M16.742 19.904L20 24s6.106-4 12-4 12 4 12 4l2.5-4.794" data-name="layer2"
  stroke-linejoin="round" stroke-linecap="round"></path>
  <path stroke-width="2" stroke-miterlimit="10" stroke="#33cc33"
  fill="none" d="M47 24.194c1.22-1.22 1-3.792 1-3.792v-6.497a7.484 7.484 0 0 0-4.479-6.87L33.155 2.502a2.863 2.863 0 0 0-2.294 0L20.494 7.035A7.499 7.499 0 0 0 16 13.905v6.634s-.064 2.667 1 3.73"
  data-name="layer2" stroke-linejoin="round" stroke-linecap="round"></path>
</svg>