<svg xmlns="http://www.w3.org/2000/svg" viewBox="0 0 64 64" aria-labelledby="title"
aria-describedby="desc" role="img" xmlns:xlink="http://www.w3.org/1999/xlink">
  <title>Briefcase</title>
  <desc>A line styled icon from Orion Icon Library.</desc>
  <path data-name="layer2"
  d="M22 17.1V13a8 8 0 0 1 8-8h4a8 8 0 0 1 8 8v3.9" fill="none" stroke="#33cc33"
  stroke-miterlimit="10" stroke-width="2" stroke-linejoin="round" stroke-linecap="round"></path>
  <path data-name="layer1" d="M36 43h26V21a4 4 0 0 0-4-4H6a4 4 0 0 0-4 4v22h26m32 0v16H4V43"
  fill="none" stroke="#003399" stroke-miterlimit="10" stroke-width="2" stroke-linejoin="round"
  stroke-linecap="round"></path>
  <path data-name="layer1" fill="none" stroke="#003399" stroke-miterlimit="10"
  stroke-width="2" d="M28 39h8v8h-8z" stroke-linejoin="round" stroke-linecap="round"></path>
</svg>