<svg xmlns="http://www.w3.org/2000/svg" viewBox="0 0 64 64" aria-labelledby="title"
aria-describedby="desc" role="img" xmlns:xlink="http://www.w3.org/1999/xlink">
  <title>Bubble</title>
  <desc>A line styled icon from Orion Icon Library.</desc>
  <path data-name="layer1"
  d="M5 59l18.8-6.9a37.1 37.1 0 0 0 8.2.9c16.6 0 30-10.7 30-24S48.6 5 32 5 2 15.7 2 29c0 6.7 3.5 12.8 9.1 17.2z"
  fill="none" stroke="#003399" stroke-miterlimit="10" stroke-width="2" stroke-linejoin="round"
  stroke-linecap="round"></path>
</svg>