<svg viewBox="0 0 64 64" xmlns="http://www.w3.org/2000/svg" aria-labelledby="title"
aria-describedby="desc" role="img" xmlns:xlink="http://www.w3.org/1999/xlink">
  <title>Businessman</title>
  <desc>A line styled icon from Orion Icon Library.</desc>
  <path stroke-width="2"
  stroke-miterlimit="10" stroke="#003399" fill="none" d="M31.6 2c-6.623 0-13.991 4-13.991 14.4v3.606c-3.047.029-2.926 3.782-2.926 4.724S15.391 32 18.438 32a17.236 17.236 0 0 0 7.172 10.267m11.99.001A17.221 17.221 0 0 0 44.768 32c3.025-.036 3.728-6.323 3.728-7.267s.117-4.667-2.9-4.72V16.4C45.6 6 38.231 2 31.6 2"
  data-name="layer1" stroke-linejoin="round" stroke-linecap="round"></path>
  <path stroke-width="2" stroke-miterlimit="10" stroke="#33cc33"
  fill="none" d="M26 62l6-12-8.373-4.775C23.55 47.074 22.505 49.3 13.609 51 2 53.215 2 62 2 62h60s0-8.6-12.422-11c-8.528-1.649-9.813-3.844-9.984-5.679L32 50l5.863 12M28 57.751l-8-8.534m15.906 8.534L44 49.512"
  data-name="layer2" stroke-linejoin="round" stroke-linecap="round"></path>
  <path stroke-width="2" stroke-miterlimit="10" stroke="#003399"
  fill="none" d="M17.609 18c12 0 12-8 20-8a7.6 7.6 0 0 1 7.991 6.89M23.627 45.225v-4.441m15.967 4.537v-4.55"
  data-name="layer1" stroke-linejoin="round" stroke-linecap="round"></path>
</svg>