<svg viewBox="0 0 64 64" xmlns="http://www.w3.org/2000/svg" aria-labelledby="title"
aria-describedby="desc" role="img" xmlns:xlink="http://www.w3.org/1999/xlink">
  <title>Camera Flash</title>
  <desc>A line styled icon from Orion Icon Library.</desc>
  <path stroke-width="2"
  stroke-miterlimit="10" stroke="#003399" fill="none" d="M62 26.731c0 5.269.254 16.739-9.086 26.08-.018-.008-.033-.02-.049-.028A3.983 3.983 0 0 1 50 54H14a3.991 3.991 0 0 1-2.844-1.189C1.816 43.471 2.07 32 2.07 26.731A3.936 3.936 0 0 1 2 26V6a4 4 0 0 1 4-4h52a4 4 0 0 1 4 4z"
  data-name="layer1" stroke-linejoin="round" stroke-linecap="round"></path>
  <path d="M10 10h44v22H10zm12 8h20m-20 6h20" stroke-width="2" stroke-miterlimit="10"
  stroke="#33cc33" fill="none" data-name="layer2" stroke-linejoin="round"
  stroke-linecap="round"></path>
  <path d="M26 46h12M18 32v14m28-14v14m-26 8v8h24v-8" stroke-width="2"
  stroke-miterlimit="10" stroke="#003399" fill="none" data-name="layer1"
  stroke-linejoin="round" stroke-linecap="round"></path>
</svg>