<svg xmlns="http://www.w3.org/2000/svg" viewBox="0 0 64 64" aria-labelledby="title"
aria-describedby="desc" role="img" xmlns:xlink="http://www.w3.org/1999/xlink">
  <title>Color Wheel</title>
  <desc>A line styled icon from Orion Icon Library.</desc>
  <path data-name="layer3"
  d="M45 32a17 17 0 0 1-9.8 5.7M22 34.8a17 17 0 1 1 26.2-8.5" fill="none"
  stroke="#003399" stroke-miterlimit="10" stroke-width="2" stroke-linejoin="round"
  stroke-linecap="round"></path>
  <path data-name="layer2" d="M15.8 26.3a17 17 0 1 1-5.8 2.3" fill="none"
  stroke="#33cc33" stroke-miterlimit="10" stroke-width="2" stroke-linejoin="round"
  stroke-linecap="round"></path>
  <path data-name="layer1" d="M32 54a17 17 0 0 1-3.3-16m3.3-6a17 17 0 1 1 6 26.5"
  fill="none" stroke="#003399" stroke-miterlimit="10" stroke-width="2" stroke-linejoin="round"
  stroke-linecap="round"></path>
</svg>