<svg viewBox="0 0 64 64" xmlns="http://www.w3.org/2000/svg" aria-labelledby="title"
aria-describedby="desc" role="img" xmlns:xlink="http://www.w3.org/1999/xlink">
  <title>Compress</title>
  <desc>A line styled icon from Orion Icon Library.</desc>
  <path d="M3 34h14l-4 4 4 4 12-11-12-11-4 4 4 4H3v6z"
  stroke-width="2" stroke-miterlimit="10" stroke-linecap="round" stroke="#33cc33"
  fill="none" data-name="layer2" stroke-linejoin="round"></path>
  <path d="M61 34H47l4 4-4 4-12-11 12-11 4 4-4 4h14v6z" stroke-width="2"
  stroke-miterlimit="10" stroke-linecap="round" stroke="#003399" fill="none"
  data-name="layer1" stroke-linejoin="round"></path>
</svg>