<svg viewBox="0 0 64 64" xmlns="http://www.w3.org/2000/svg" aria-labelledby="title"
aria-describedby="desc" role="img" xmlns:xlink="http://www.w3.org/1999/xlink">
  <title>Crown</title>
  <desc>A line styled icon from Orion Icon Library.</desc>
  <path d="M8.082 53.987h48m1.137-26.082L52 54.015m3.174-27.205L46 35.985l-14-16M8.828 26.812L18 35.985l14-16M12 53.988L6.801 27.987"
  stroke-width="2" stroke-miterlimit="10" stroke="#33cc33" fill="none" data-name="layer2"
  stroke-linejoin="round" stroke-linecap="round"></path>
  <circle stroke-width="2" stroke-miterlimit="10" stroke="#003399"
  fill="none" r="5" cy="14.984" cx="32" data-name="layer1" stroke-linejoin="round"
  stroke-linecap="round"></circle>
  <circle stroke-width="2" stroke-miterlimit="10" stroke="#003399"
  fill="none" r="4" cy="23.983" cx="6" data-name="layer1" stroke-linejoin="round"
  stroke-linecap="round"></circle>
  <circle stroke-width="2" stroke-miterlimit="10" stroke="#003399"
  fill="none" r="4" cy="23.983" cx="58" data-name="layer1" stroke-linejoin="round"
  stroke-linecap="round"></circle>
</svg>