<svg viewBox="0 0 64 64" xmlns="http://www.w3.org/2000/svg" aria-labelledby="title"
aria-describedby="desc" role="img" xmlns:xlink="http://www.w3.org/1999/xlink">
  <title>Edit</title>
  <desc>A line styled icon from Orion Icon Library.</desc>
  <path d="M54.368 17.674l6.275-6.267-8.026-8.025-6.274 6.267"
  stroke-width="2" stroke-miterlimit="10" stroke="#33cc33" fill="none" data-name="layer2"
  stroke-linejoin="round" stroke-linecap="round"></path>
  <path d="M17.766 54.236l36.602-36.562-8.025-8.025L9.74 46.211 3.357 60.618l14.409-6.382zM9.74 46.211l8.026 8.025"
  stroke-width="2" stroke-miterlimit="10" stroke="#003399" fill="none" data-name="layer1"
  stroke-linejoin="round" stroke-linecap="round"></path>
</svg>