<svg xmlns="http://www.w3.org/2000/svg" viewBox="0 0 64 64" aria-labelledby="title"
aria-describedby="desc" role="img" xmlns:xlink="http://www.w3.org/1999/xlink">
  <title>Email</title>
  <desc>A line styled icon from Orion Icon Library.</desc>
  <path data-name="layer1"
  d="M36 48v10a4 4 0 0 1-4 4H6a4 4 0 0 1-4-4V6a4 4 0 0 1 4-4h26a4 4 0 0 1 4 4v4M2 10h34M2 48h34"
  fill="none" stroke="#003399" stroke-linecap="round" stroke-linejoin="round"
  stroke-width="2"></path>
  <path data-name="layer2" fill="none" stroke="#33cc33" stroke-linecap="round"
  stroke-linejoin="round" stroke-width="2" d="M28 18h34v22H28z"></path>
  <path data-name="layer2" fill="none" stroke="#33cc33" stroke-linecap="round"
  stroke-linejoin="round" stroke-width="2" d="M28 18l17 14 17-14"></path>
  <circle data-name="layer1" cx="19" cy="55" r="1" fill="none" stroke="#003399"
  stroke-linecap="round" stroke-linejoin="round" stroke-width="2"></circle>
</svg>