<svg xmlns="http://www.w3.org/2000/svg" viewBox="0 0 64 64" aria-labelledby="title"
aria-describedby="desc" role="img" xmlns:xlink="http://www.w3.org/1999/xlink">
  <title>Entrance</title>
  <desc>A line styled icon from Orion Icon Library.</desc>
  <path data-name="layer2"
  d="M55 18.7A6.9 6.9 0 0 1 45.3 9l-7-7L2 38.3l7 7a6.9 6.9 0 0 1 9.7 9.7l7 7L62 25.7z"
  fill="none" stroke="#33cc33" stroke-miterlimit="10" stroke-width="2" stroke-linejoin="round"
  stroke-linecap="round"></path>
  <path data-name="layer1" fill="none" stroke="#003399" stroke-miterlimit="10"
  stroke-width="2" d="M34.1 14.6l1.4 1.4m4.2 4.1l1.4 1.4m4.2 4.2l1.4 1.4m4.1 4.2l1.4 1.4m-40.4-1.4l1.4 1.4m4.1 4.2l1.4 1.4m4.2 4.2l1.4 1.4m4.2 4.1l1.4 1.4"
  stroke-linejoin="round" stroke-linecap="round"></path>
</svg>