<svg xmlns="http://www.w3.org/2000/svg" viewBox="0 0 64 64" aria-labelledby="title"
aria-describedby="desc" role="img" xmlns:xlink="http://www.w3.org/1999/xlink">
  <title>Exit Full Screen</title>
  <desc>A line styled icon from Orion Icon Library.</desc>
  <path data-name="layer2"
  fill="none" stroke="#33cc33" stroke-miterlimit="10" stroke-width="2" d="M20 24h24v16H20z"
  stroke-linejoin="round" stroke-linecap="round"></path>
  <path data-name="layer1" fill="none" stroke="#003399" stroke-miterlimit="10"
  stroke-width="2" d="M14 6v12H2m11.997 0L2 6m48 0v12h12m-11.997 0L62 6M14 58V46H2m11.997 0L2 58m48 0V46h12m-11.997 0L62 58"
  stroke-linejoin="round" stroke-linecap="round"></path>
</svg>