<svg viewBox="0 0 64 64" xmlns="http://www.w3.org/2000/svg" aria-labelledby="title"
aria-describedby="desc" role="img" xmlns:xlink="http://www.w3.org/1999/xlink">
  <title>Expand Horizontal</title>
  <desc>A line styled icon from Orion Icon Library.</desc>
  <path d="M36 34h13l-4 4 4 4 12-11-12-11-4 4 4 4H36v6z"
  stroke-width="2" stroke-miterlimit="10" stroke-linecap="round" stroke="#33cc33"
  fill="none" data-name="layer2" stroke-linejoin="round"></path>
  <path d="M28 34H15l4 4-4 4L3 31l12-11 4 4-4 4h13v6z" stroke-width="2"
  stroke-miterlimit="10" stroke-linecap="round" stroke="#003399" fill="none"
  data-name="layer1" stroke-linejoin="round"></path>
</svg>