<svg xmlns="http://www.w3.org/2000/svg" viewBox="0 0 64 64" aria-labelledby="title"
aria-describedby="desc" role="img" xmlns:xlink="http://www.w3.org/1999/xlink">
  <title>Extend Vertical</title>
  <desc>A line styled icon from Orion Icon Library.</desc>
  <path data-name="layer2"
  fill="none" stroke="#33cc33" stroke-miterlimit="10" stroke-width="2" d="M26 25l3-3v20l-4-4-3.992 4.477L32 54l10-11-4-4-3 3V22l3 3 4-4-10-11-11 11 5 4z"
  stroke-linejoin="round" stroke-linecap="round"></path>
  <path data-name="layer1" fill="none" stroke="#003399" stroke-miterlimit="10"
  stroke-width="2" d="M14 56h36v6H14zm0-54h36v6H14z" stroke-linejoin="round"
  stroke-linecap="round"></path>
</svg>