<svg xmlns="http://www.w3.org/2000/svg" viewBox="0 0 64 64" aria-labelledby="title"
aria-describedby="desc" role="img" xmlns:xlink="http://www.w3.org/1999/xlink">
  <title>Extend Diagonal</title>
  <desc>A line styled icon from Orion Icon Library.</desc>
  <path data-name="layer1"
  d="M41 8a3 3 0 0 0 0 6h4.755L14 45.756V41a3 3 0 0 0-6 0v15h15a3 3 0 0 0 0-6h-4.76L50 18.24V23a3 3 0 0 0 6 0V8z"
  fill="none" stroke="#003399" stroke-miterlimit="10" stroke-width="2" stroke-linejoin="round"
  stroke-linecap="round"></path>
</svg>