<svg xmlns="http://www.w3.org/2000/svg" viewBox="0 0 64 64" aria-labelledby="title"
aria-describedby="desc" role="img" xmlns:xlink="http://www.w3.org/1999/xlink">
  <title>Fast Forward</title>
  <desc>A line styled icon from Orion Icon Library.</desc>
  <path data-name="layer1"
  fill="none" stroke="#003399" stroke-miterlimit="10" stroke-width="2" d="M58 32L26 10v13.8L6 10v44l20-13.8V54l32-22z"
  stroke-linejoin="round" stroke-linecap="round"></path>
</svg>