<svg xmlns="http://www.w3.org/2000/svg" viewBox="0 0 64 64" aria-labelledby="title"
aria-describedby="desc" role="img" xmlns:xlink="http://www.w3.org/1999/xlink">
  <title>Fax</title>
  <desc>A line styled icon from Orion Icon Library.</desc>
  <path data-name="layer2"
  fill="none" stroke="#33cc33" stroke-linecap="round" stroke-miterlimit="10"
  stroke-width="2" d="M32 10h20m6 8V8l-6-6H26v16" stroke-linejoin="round"></path>
  <rect data-name="layer1" x="2" y="10" width="18" height="52" rx="4"
  ry="4" fill="none" stroke="#003399" stroke-linecap="round" stroke-miterlimit="10"
  stroke-width="2" stroke-linejoin="round"></rect>
  <path data-name="layer1" fill="none" stroke="#003399" stroke-linecap="round"
  stroke-miterlimit="10" stroke-width="2" d="M8 2v8m9 52h41a4 4 0 0 0 4-4V22a4 4 0 0 0-4-4H20"
  stroke-linejoin="round"></path>
  <path data-name="layer1" fill="none" stroke="#003399" stroke-linecap="round"
  stroke-miterlimit="10" stroke-width="2" d="M30 24h22v8H30z" stroke-linejoin="round"></path>
  <circle data-name="layer1" cx="33" cy="39" r="1" fill="none" stroke="#003399"
  stroke-linecap="round" stroke-miterlimit="10" stroke-width="2" stroke-linejoin="round"></circle>
  <circle data-name="layer1" cx="41" cy="39" r="1" fill="none"
  stroke="#003399" stroke-linecap="round" stroke-miterlimit="10" stroke-width="2"
  stroke-linejoin="round"></circle>
  <circle data-name="layer1" cx="49" cy="39" r="1" fill="none"
  stroke="#003399" stroke-linecap="round" stroke-miterlimit="10" stroke-width="2"
  stroke-linejoin="round"></circle>
  <circle data-name="layer1" cx="33" cy="47" r="1" fill="none"
  stroke="#003399" stroke-linecap="round" stroke-miterlimit="10" stroke-width="2"
  stroke-linejoin="round"></circle>
  <circle data-name="layer1" cx="41" cy="47" r="1" fill="none"
  stroke="#003399" stroke-linecap="round" stroke-miterlimit="10" stroke-width="2"
  stroke-linejoin="round"></circle>
  <circle data-name="layer1" cx="49" cy="47" r="1" fill="none"
  stroke="#003399" stroke-linecap="round" stroke-miterlimit="10" stroke-width="2"
  stroke-linejoin="round"></circle>
  <circle data-name="layer1" cx="33" cy="55" r="1" fill="none"
  stroke="#003399" stroke-linecap="round" stroke-miterlimit="10" stroke-width="2"
  stroke-linejoin="round"></circle>
  <circle data-name="layer1" cx="41" cy="55" r="1" fill="none"
  stroke="#003399" stroke-linecap="round" stroke-miterlimit="10" stroke-width="2"
  stroke-linejoin="round"></circle>
  <circle data-name="layer1" cx="49" cy="55" r="1" fill="none"
  stroke="#003399" stroke-linecap="round" stroke-miterlimit="10" stroke-width="2"
  stroke-linejoin="round"></circle>
</svg>