<svg viewBox="0 0 64 64" xmlns="http://www.w3.org/2000/svg" aria-labelledby="title"
aria-describedby="desc" role="img" xmlns:xlink="http://www.w3.org/1999/xlink">
  <title>Fork</title>
  <desc>A line styled icon from Orion Icon Library.</desc>
  <path d="M53 22l8-8-8-8m0 52l8-8-8-8"
  stroke-width="2" stroke-miterlimit="10" stroke-linecap="round" stroke="#33cc33"
  fill="none" data-name="layer2" stroke-linejoin="round"></path>
  <path d="M32.1 27.3l6.8-9.3M23 32a11.3 11.3 0 0 0 9.1-4.7m6.8-9.3a11 11 0 0 1 8.5-4H61M32.1 36.7l6.8 9.3M2 32h21a11.4 11.4 0 0 1 9.2 4.7m6.7 9.3a11 11 0 0 0 8.5 4H61"
  stroke-width="2" stroke-miterlimit="10" stroke-linecap="round" stroke="#003399"
  fill="none" data-name="layer1" stroke-linejoin="round"></path>
</svg>