<svg xmlns="http://www.w3.org/2000/svg" viewBox="0 0 64 64" aria-labelledby="title"
aria-describedby="desc" role="img" xmlns:xlink="http://www.w3.org/1999/xlink">
  <title>Google Plus</title>
  <desc>A color styled icon from Orion Icon Library.</desc>
  <path data-name="layer1"
  d="M22.454 35.744h10A12.712 12.712 0 1 1 29 22.113a1.377 1.377 0 0 0 1.873-.007l3.673-3.456a1.373 1.373 0 0 0 0-2 20.4 20.4 0 0 0-13.67-5.606 20.475 20.475 0 1 0 20.04 21.627c.016-.135.027-4.7.027-4.7H22.454a1.372 1.372 0 0 0-1.372 1.372v5.028a1.372 1.372 0 0 0 1.372 1.372zm35.431-7.316v-4.912a1.2 1.2 0 0 0-1.2-1.2h-4.137a1.2 1.2 0 0 0-1.2 1.2v4.913h-4.914a1.2 1.2 0 0 0-1.2 1.2v4.135a1.2 1.2 0 0 0 1.2 1.2h4.912v4.916a1.2 1.2 0 0 0 1.2 1.2h4.135a1.2 1.2 0 0 0 1.2-1.2v-4.912H62.8a1.2 1.2 0 0 0 1.2-1.2v-4.137a1.2 1.2 0 0 0-1.2-1.2zm0 0"
  fill="#f34a38"></path>
</svg>