<svg xmlns="http://www.w3.org/2000/svg" viewBox="0 0 64 64" aria-labelledby="title"
aria-describedby="desc" role="img" xmlns:xlink="http://www.w3.org/1999/xlink">
  <title>Image Gallery</title>
  <desc>A line styled icon from Orion Icon Library.</desc>
  <path data-name="layer3"
  fill="none" stroke="#003399" stroke-miterlimit="10" stroke-width="2" d="M10 54H2V2h52v8"
  stroke-linejoin="round" stroke-linecap="round"></path>
  <path data-name="layer1" fill="none" stroke="#003399" stroke-miterlimit="10"
  stroke-width="2" d="M10 10h52v52H10z" stroke-linejoin="round" stroke-linecap="round"></path>
  <circle data-name="layer2" cx="22" cy="22" r="4" fill="none" stroke="#33cc33"
  stroke-miterlimit="10" stroke-width="2" stroke-linejoin="round" stroke-linecap="round"></circle>
  <path data-name="layer2" d="M16 50c0-2.8 2.6-16 9.3-16s6.1 6 8.7 6 2.6-16 10-16 12 23.8 12 26"
  fill="none" stroke="#33cc33" stroke-miterlimit="10" stroke-width="2" stroke-linejoin="round"
  stroke-linecap="round"></path>
  <path data-name="layer1" fill="none" stroke="#003399" stroke-miterlimit="10"
  stroke-width="2" d="M10 50h52" stroke-linejoin="round" stroke-linecap="round"></path>
</svg>