<svg xmlns="http://www.w3.org/2000/svg" viewBox="0 0 64 64" aria-labelledby="title"
aria-describedby="desc" role="img" xmlns:xlink="http://www.w3.org/1999/xlink">
  <title>Inbox</title>
  <desc>A line styled icon from Orion Icon Library.</desc>
  <path data-name="layer2"
  fill="none" stroke="#33cc33" stroke-miterlimit="10" stroke-width="2" d="M32 2v29.2M23 23l9 8.2 9-8.2"
  stroke-linejoin="round" stroke-linecap="round"></path>
  <path data-name="layer1" fill="none" stroke="#003399" stroke-miterlimit="10"
  stroke-width="2" d="M40 10l22 18v34H2V28l22-18m18.1 33.9L62 28M2 28l19.9 15.9"
  stroke-linejoin="round" stroke-linecap="round"></path>
  <path data-name="layer1" d="M2 62l20.9-19.1c3.9-3.9 14.2-3.9 18.1 0L62 62"
  fill="none" stroke="#003399" stroke-miterlimit="10" stroke-width="2" stroke-linejoin="round"
  stroke-linecap="round"></path>
</svg>