<svg xmlns="http://www.w3.org/2000/svg" viewBox="0 0 64 64" aria-labelledby="title"
aria-describedby="desc" role="img" xmlns:xlink="http://www.w3.org/1999/xlink">
  <title>Indicator Left</title>
  <desc>A line styled icon from Orion Icon Library.</desc>
  <path data-name="layer1"
  d="M25.121 47.121L11.128 33.128l-.012-.012L9 31l16.121-16.121a3 3 0 0 1 4.242 4.242l-8.879 8.88h29.517a3 3 0 1 1 0 6H20.486l8.877 8.878a3 3 0 0 1-4.242 4.242z"
  fill="none" stroke="#003399" stroke-miterlimit="10" stroke-width="2" stroke-linejoin="round"
  stroke-linecap="round"></path>
</svg>