<svg xmlns="http://www.w3.org/2000/svg" viewBox="0 0 64 64" aria-labelledby="title"
aria-describedby="desc" role="img" xmlns:xlink="http://www.w3.org/1999/xlink">
  <title>Instagram</title>
  <desc>A color styled icon from Orion Icon Library.</desc>
  <path data-name="layer1"
  d="M8.2 0h47.6A7.989 7.989 0 0 1 64 8.2v47.6a7.989 7.989 0 0 1-8.2 8.2H8.2A7.989 7.989 0 0 1 0 55.8V8.2A7.989 7.989 0 0 1 8.2 0zm38.4 7.1a2.9 2.9 0 0 0-2.9 2.9v6.9a2.9 2.9 0 0 0 2.9 2.9h7.2a2.9 2.9 0 0 0 2.9-2.9V10a2.9 2.9 0 0 0-2.9-2.9zm10.2 20h-5.6a19.758 19.758 0 0 1 .8 5.5c0 10.6-8.9 19.3-19.9 19.3s-19.9-8.6-19.9-19.3a19.758 19.758 0 0 1 .8-5.5H7.1v27a2.476 2.476 0 0 0 2.5 2.5h44.6a2.476 2.476 0 0 0 2.5-2.5l.1-27zm-24.7-7.7a12.723 12.723 0 0 0-12.9 12.5 12.64 12.64 0 0 0 12.9 12.4A12.723 12.723 0 0 0 45 31.8a12.64 12.64 0 0 0-12.9-12.4z"
  fill="#bf2994"></path>
</svg>