<svg xmlns="http://www.w3.org/2000/svg" viewBox="0 0 64 64" aria-labelledby="title"
aria-describedby="desc" role="img" xmlns:xlink="http://www.w3.org/1999/xlink">
  <title>Label Tag</title>
  <desc>A line styled icon from Orion Icon Library.</desc>
  <path data-name="layer2"
  fill="none" stroke="#33cc33" stroke-miterlimit="10" stroke-width="2" d="M25.6 61L3 38.4 38.4 3l21.2 1.4L61 25.6 25.6 61z"
  stroke-linejoin="round" stroke-linecap="round"></path>
  <circle data-name="layer2" cx="48" cy="15" r="4" fill="none" stroke="#33cc33"
  stroke-miterlimit="10" stroke-width="2" stroke-linejoin="round" stroke-linecap="round"></circle>
  <path data-name="layer1" fill="none" stroke="#003399" stroke-miterlimit="10"
  stroke-width="2" d="M31.3 21.4l11.3 11.3m-22.6 0l8.5 8.5M25.6 27l5.7 5.7"
  stroke-linejoin="round" stroke-linecap="round"></path>
</svg>