<svg xmlns="http://www.w3.org/2000/svg" viewBox="0 0 64 64" aria-labelledby="title"
aria-describedby="desc" role="img" xmlns:xlink="http://www.w3.org/1999/xlink">
  <title>Likes</title>
  <desc>A line styled icon from Orion Icon Library.</desc>
  <path data-name="layer2"
  d="M54.4 30.4A25.4 25.4 0 0 0 58 17.9 13.9 13.9 0 0 0 44 4c-6.1 0-12 3.9-14 9.3C28 7.9 22.1 4 16 4A13.9 13.9 0 0 0 2 17.9C2 29.9 12.3 42 30 54l2.4-1.6"
  fill="none" stroke="#33cc33" stroke-miterlimit="10" stroke-width="2" stroke-linejoin="round"
  stroke-linecap="round"></path>
  <circle data-name="layer1" cx="46" cy="44" r="16" fill="none" stroke="#003399"
  stroke-miterlimit="10" stroke-width="2" stroke-linejoin="round" stroke-linecap="round"></circle>
</svg>