<svg viewBox="0 0 64 64" xmlns="http://www.w3.org/2000/svg" aria-labelledby="title"
aria-describedby="desc" role="img" xmlns:xlink="http://www.w3.org/1999/xlink">
  <title>Lock</title>
  <desc>A line styled icon from Orion Icon Library.</desc>
  <path stroke-width="2"
  stroke-miterlimit="10" stroke="#33cc33" fill="none" d="M19 26.8V15A13 13 0 0 1 32 2a13 13 0 0 1 13 13v11.8"
  data-name="layer2" stroke-linejoin="round" stroke-linecap="round"></path>
  <path stroke-width="2" stroke-miterlimit="10" stroke="#33cc33"
  fill="none" d="M23 24.134V15a9 9 0 0 1 18 0v9.134" data-name="layer2" stroke-linejoin="round"
  stroke-linecap="round"></path>
  <circle stroke-width="2" stroke-miterlimit="10" stroke="#003399"
  fill="none" r="20" cy="42" cx="32" data-name="layer1" stroke-linejoin="round"
  stroke-linecap="round"></circle>
  <circle stroke-width="2" stroke-miterlimit="10" stroke="#003399"
  fill="none" r="8" cy="42" cx="32" data-name="layer1" stroke-linejoin="round"
  stroke-linecap="round"></circle>
  <path d="M32 28v6m0 16v6M18 42h6m16 0h6" stroke-width="2" stroke-miterlimit="10"
  stroke="#003399" fill="none" data-name="layer1" stroke-linejoin="round"
  stroke-linecap="round"></path>
</svg>