<svg xmlns="http://www.w3.org/2000/svg" viewBox="0 0 64 64" aria-labelledby="title"
aria-describedby="desc" role="img" xmlns:xlink="http://www.w3.org/1999/xlink">
  <title>Loop</title>
  <desc>A line styled icon from Orion Icon Library.</desc>
  <path data-name="layer1"
  fill="none" stroke="#003399" stroke-miterlimit="10" stroke-width="2" d="M2 48h60V16H47v6h9v20H8V22h20.099l-5.221 6.39L27 32.751 39 19 26 6l-4 4 6.091 6H2v32z"
  stroke-linejoin="round" stroke-linecap="round"></path>
</svg>