<svg xmlns="http://www.w3.org/2000/svg" viewBox="0 0 64 64" aria-labelledby="title"
aria-describedby="desc" role="img" xmlns:xlink="http://www.w3.org/1999/xlink">
  <title>Luxury</title>
  <desc>A line styled icon from Orion Icon Library.</desc>
  <path data-name="layer1"
  fill="none" stroke="#003399" stroke-miterlimit="10" stroke-width="2" d="M32 18V2"
  stroke-linejoin="round" stroke-linecap="round"></path>
  <path data-name="layer2" d="M46 33c0 8.3-6.3 21-14 21S18 41.3 18 33s6.3-15 14-15 14 6.7 14 15z"
  fill="none" stroke="#33cc33" stroke-miterlimit="10" stroke-width="2" stroke-linejoin="round"
  stroke-linecap="round"></path>
  <path data-name="layer2" d="M25.5 19.5A14.9 14.9 0 0 0 4 32.9c0 6.2 2.5 13.2 8.3 21.1h39.4c5.8-7.9 8.3-14.9 8.3-21.1a14.9 14.9 0 0 0-21.5-13.4"
  fill="none" stroke="#33cc33" stroke-miterlimit="10" stroke-width="2" stroke-linejoin="round"
  stroke-linecap="round"></path>
  <path data-name="layer1" fill="none" stroke="#003399" stroke-miterlimit="10"
  stroke-width="2" d="M12 62h40" stroke-linejoin="round" stroke-linecap="round"></path>
</svg>