<svg xmlns="http://www.w3.org/2000/svg" viewBox="0 0 64 64" aria-labelledby="title"
aria-describedby="desc" role="img" xmlns:xlink="http://www.w3.org/1999/xlink">
  <title>Magento</title>
  <desc>A color styled icon from Orion Icon Library.</desc>
  <path data-name="layer1"
  d="M51.8 51.6V20.8l-20-12.4-20 12.4v30.8l-7.2-4.4V16.8L31.8 0 59 16.8v30.4zm-24 3.5l4 2.5 4-2.5V19.4l8.8 5.4v31.3L31.8 64 19 56.1V24.8l8.8-5.4z"
  fill="#f26322"></path>
</svg>