<svg xmlns="http://www.w3.org/2000/svg" viewBox="0 0 64 64" aria-labelledby="title"
aria-describedby="desc" role="img" xmlns:xlink="http://www.w3.org/1999/xlink">
  <title>Music Volume EQ</title>
  <desc>A line styled icon from Orion Icon Library.</desc>
  <path data-name="layer2"
  fill="none" stroke="#33cc33" stroke-miterlimit="10" stroke-width="2" d="M2 2h60v60H2z"
  stroke-linejoin="round" stroke-linecap="round"></path>
  <path data-name="layer1" fill="none" stroke="#003399" stroke-miterlimit="10"
  stroke-width="2" d="M26 22h12m-12 8h12m-12 8h12m-12 8h12m6-8h11m-11 8h11M9 46h12v8H9zm17-32h12v40H26zm18 16h11v24H44z"
  stroke-linejoin="round" stroke-linecap="round"></path>
</svg>