<svg viewBox="0 0 64 64" xmlns="http://www.w3.org/2000/svg" aria-labelledby="title"
aria-describedby="desc" role="img" xmlns:xlink="http://www.w3.org/1999/xlink">
  <title>Open Mail</title>
  <desc>A line styled icon from Orion Icon Library.</desc>
  <path d="M2 28l19.92 13.944"
  stroke-width="2" stroke-miterlimit="10" stroke="#33cc33" fill="none" data-name="layer2"
  stroke-linejoin="round" stroke-linecap="round"></path>
  <path stroke-width="2" stroke-miterlimit="10" stroke="#003399"
  fill="none" d="M2 62l20.929-21.071c3.905-3.905 14.237-3.905 18.143 0L62 62m0-34L42.08 41.944"
  data-name="layer1" stroke-linejoin="round" stroke-linecap="round"></path>
  <path d="M32 3L2 28v34h60V28L32 3z" stroke-width="2" stroke-miterlimit="10"
  stroke="#003399" fill="none" data-name="layer1" stroke-linejoin="round"
  stroke-linecap="round"></path>
</svg>