<svg viewBox="0 0 64 64" xmlns="http://www.w3.org/2000/svg" aria-labelledby="title"
aria-describedby="desc" role="img" xmlns:xlink="http://www.w3.org/1999/xlink">
  <title>Pencil</title>
  <desc>A line styled icon from Orion Icon Library.</desc>
  <path d="M43.815 20.184L19.232 44.767m0 13.175a9.319 9.319 0 0 1 0-13.175 9.315 9.315 0 0 1-13.174 0"
  stroke-width="2" stroke-miterlimit="10" stroke="#003399" fill="none" data-name="layer1"
  stroke-linejoin="round" stroke-linecap="round"></path>
  <path stroke-width="2" stroke-miterlimit="10" stroke="#33cc33"
  fill="none" d="M56.167 21.007l3.533-3.529c3.641-3.639 2.7-8.6-.939-12.234S50.16.665 46.521 4.3l-3.528 3.533"
  data-name="layer2" stroke-linejoin="round" stroke-linecap="round"></path>
  <path d="M50.402 26.772l5.765-5.765L42.993 7.833l-5.766 5.764"
  stroke-width="2" stroke-miterlimit="10" stroke="#003399" fill="none" data-name="layer1"
  stroke-linejoin="round" stroke-linecap="round"></path>
  <path d="M19.232 57.942l31.17-31.17-13.175-13.175-31.169 31.17L2 62l17.232-4.058z"
  stroke-width="2" stroke-miterlimit="10" stroke="#003399" fill="none" data-name="layer1"
  stroke-linejoin="round" stroke-linecap="round"></path>
</svg>