<svg xmlns="http://www.w3.org/2000/svg" viewBox="0 0 64 64" aria-labelledby="title"
aria-describedby="desc" role="img" xmlns:xlink="http://www.w3.org/1999/xlink">
  <title>Pin</title>
  <desc>A line styled icon from Orion Icon Library.</desc>
  <path data-name="layer2"
  fill="none" stroke="#33cc33" stroke-miterlimit="10" stroke-width="2" d="M2.6 61.4l24.2-24.2"
  stroke-linejoin="round" stroke-linecap="round"></path>
  <path data-name="layer1" d="M43.1 45V33.7L53.7 23a5 5 0 0 0 6.3-.6l1.4-1.4L43.1 2.6 41.6 4a5 5 0 0 0-.6 6.3L30.3 20.9H19l-4.2 4.2 8.5 8.5 3 3 1 1 3 3 8.5 8.5z"
  fill="none" stroke="#003399" stroke-miterlimit="10" stroke-width="2" stroke-linejoin="round"
  stroke-linecap="round"></path>
</svg>