<svg xmlns="http://www.w3.org/2000/svg" viewBox="0 0 64 64" aria-labelledby="title"
aria-describedby="desc" role="img" xmlns:xlink="http://www.w3.org/1999/xlink">
  <title>Plaxo</title>
  <desc>A color styled icon from Orion Icon Library.</desc>
  <path data-name="layer1"
  d="M32-.011A32 32 0 0 0 8.409 53.606V31.831a23.618 23.618 0 1 1 23.618 23.618 6.653 6.653 0 0 1 0-13.306 10.311 10.311 0 1 0-10.311-10.312v30.46A32 32 0 1 0 32-.011zm0 0"
  fill="#2950a1"></path>
</svg>