<svg xmlns="http://www.w3.org/2000/svg" viewBox="0 0 64 64" aria-labelledby="title"
aria-describedby="desc" role="img" xmlns:xlink="http://www.w3.org/1999/xlink">
  <title>Previous</title>
  <desc>A line styled icon from Orion Icon Library.</desc>
  <path data-name="layer1"
  fill="none" stroke="#003399" stroke-miterlimit="10" stroke-width="2" d="M35 27.9l10-6.8v21.8l-10-6.8v6.8L19 32v-.1l16-10.8v6.8z"
  stroke-linejoin="round" stroke-linecap="round"></path>
  <circle data-name="layer2" cx="31" cy="32" r="30" fill="none" stroke="#33cc33"
  stroke-miterlimit="10" stroke-width="2" stroke-linejoin="round" stroke-linecap="round"></circle>
  <path data-name="layer1" fill="none" stroke="#003399" stroke-miterlimit="10"
  stroke-width="2" d="M17 20v24" stroke-linejoin="round" stroke-linecap="round"></path>
</svg>