<svg viewBox="0 0 64 64" xmlns="http://www.w3.org/2000/svg" aria-labelledby="title"
aria-describedby="desc" role="img" xmlns:xlink="http://www.w3.org/1999/xlink">
  <title>Random</title>
  <desc>A line styled icon from Orion Icon Library.</desc>
  <path d="M53 24l8-8-8-8"
  stroke-width="2" stroke-miterlimit="10" stroke-linecap="round" stroke="#33cc33"
  fill="none" data-name="layer2" stroke-linejoin="round"></path>
  <path d="M53 54l8-8-8-8" stroke-width="2" stroke-miterlimit="10"
  stroke-linecap="round" stroke="#003399" fill="none" data-name="layer1"
  stroke-linejoin="round"></path>
  <path d="M61 16H42L18 46H2" stroke-width="2" stroke-miterlimit="10"
  stroke-linecap="round" stroke="#33cc33" fill="none" data-name="layer2"
  stroke-linejoin="round"></path>
  <path d="M26.8 27L18 16H2m59 30H42l-8-10" stroke-width="2" stroke-miterlimit="10"
  stroke-linecap="round" stroke="#003399" fill="none" data-name="layer1"
  stroke-linejoin="round"></path>
</svg>