<svg xmlns="http://www.w3.org/2000/svg" viewBox="0 0 64 64" aria-labelledby="title"
aria-describedby="desc" role="img" xmlns:xlink="http://www.w3.org/1999/xlink">
  <title>Refresh</title>
  <desc>A line styled icon from Orion Icon Library.</desc>
  <path data-name="layer2"
  fill="none" stroke="#33cc33" stroke-miterlimit="10" stroke-width="2" d="M12 15h18.109l-3.102 2.758 3.986 4.485L42.516 12 30.993 2l-3.986 4.243L30.109 9H6v46h11v-6h-5V15z"
  stroke-linejoin="round" stroke-linecap="round"></path>
  <path data-name="layer1" fill="none" stroke="#003399" stroke-miterlimit="10"
  stroke-width="2" d="M60 9H49v6h5v34H35.891l3.102-2.757-3.986-4.485L23.484 52 35 62l3.993-4.242L35.891 55H60V9z"
  stroke-linejoin="round" stroke-linecap="round"></path>
</svg>