<svg xmlns="http://www.w3.org/2000/svg" viewBox="0 0 64 64" aria-labelledby="title"
aria-describedby="desc" role="img" xmlns:xlink="http://www.w3.org/1999/xlink">
  <title>Repeat</title>
  <desc>A line styled icon from Orion Icon Library.</desc>
  <path data-name="layer2"
  fill="none" stroke="#33cc33" stroke-miterlimit="10" stroke-width="2" d="M8 17h35.599l-5.44 4.39L42 26l15-12L42 2l-3.842 4.609 5.441 4.393L2 11v27h6V17z"
  stroke-linejoin="round" stroke-linecap="round"></path>
  <path data-name="layer1" fill="none" stroke="#003399" stroke-miterlimit="10"
  stroke-width="2" d="M62 26h-6v21H20.402l5.439-4.39L22 38 7 50l15 12 3.841-4.609L20.402 53H62V26z"
  stroke-linejoin="round" stroke-linecap="round"></path>
</svg>