<svg viewBox="0 0 64 64" xmlns="http://www.w3.org/2000/svg" aria-labelledby="title"
aria-describedby="desc" role="img" xmlns:xlink="http://www.w3.org/1999/xlink">
  <title>Resize Horizontal</title>
  <desc>A line styled icon from Orion Icon Library.</desc>
  <path d="M49 20l-4 4.5 3.5 3.5H15.4l3.6-3.8-4-4.2L3 31l12 11 4-4-4-4h34l-4 4 4 4 12-10.9L49 20z"
  stroke-width="2" stroke-miterlimit="10" stroke-linecap="round" stroke="#003399"
  fill="none" data-name="layer1" stroke-linejoin="round"></path>
</svg>