<svg viewBox="0 0 64 64" xmlns="http://www.w3.org/2000/svg" aria-labelledby="title"
aria-describedby="desc" role="img" xmlns:xlink="http://www.w3.org/1999/xlink">
  <title>Scissor</title>
  <desc>A line styled icon from Orion Icon Library.</desc>
  <path stroke-width="2"
  stroke-miterlimit="10" stroke="#33cc33" fill="none" d="M26.859 17.572C41.6 32.311 44.315 52.193 22 62l13.665-32.208"
  data-name="layer2" stroke-linejoin="round" stroke-linecap="round"></path>
  <path stroke-width="2" stroke-miterlimit="10" stroke="#33cc33"
  fill="none" d="M46.428 37.153C31.689 22.415 11.807 21.684 2 44l32.519-15.189"
  data-name="layer2" stroke-linejoin="round" stroke-linecap="round"></path>
  <circle stroke-width="2" stroke-miterlimit="10" stroke="#003399"
  fill="none" transform="rotate(-45.002 33.015 11)" r="9" cy="11" cx="33.015"
  data-name="layer1" stroke-linejoin="round" stroke-linecap="round"></circle>
  <circle stroke-width="2" stroke-miterlimit="10" stroke="#003399"
  fill="none" transform="rotate(-45.001 53 30.998)" r="9" cy="30.998" cx="53"
  data-name="layer1" stroke-linejoin="round" stroke-linecap="round"></circle>
</svg>