<svg viewBox="0 0 64 64" xmlns="http://www.w3.org/2000/svg" aria-labelledby="title"
aria-describedby="desc" role="img" xmlns:xlink="http://www.w3.org/1999/xlink">
  <title>Share</title>
  <desc>A line styled icon from Orion Icon Library.</desc>
  <path stroke-width="2"
  stroke-miterlimit="10" stroke-linecap="round" stroke="#003399" fill="none"
  d="M32 22V10l28 20-28 20V38c-11.1 0-21.3.4-30 16 0-9.9 1-32 30-32z" data-name="layer1"
  stroke-linejoin="round"></path>
</svg>