<svg viewBox="0 0 64 64" xmlns="http://www.w3.org/2000/svg" aria-labelledby="title"
aria-describedby="desc" role="img" xmlns:xlink="http://www.w3.org/1999/xlink">
  <title>Spread Diagonal</title>
  <desc>A line styled icon from Orion Icon Library.</desc>
  <path d="M28 28L11 11m42 42L36 36"
  stroke-width="2" stroke-miterlimit="10" stroke-linecap="round" stroke="#33cc33"
  fill="none" data-name="layer2" stroke-linejoin="round"></path>
  <path d="M23 11H11v12m30 30h12V41" stroke-width="2" stroke-miterlimit="10"
  stroke-linecap="round" stroke="#003399" fill="none" data-name="layer1"
  stroke-linejoin="round"></path>
</svg>