<svg xmlns="http://www.w3.org/2000/svg" viewBox="0 0 64 64" aria-labelledby="title"
aria-describedby="desc" role="img" xmlns:xlink="http://www.w3.org/1999/xlink">
  <title>Time</title>
  <desc>A line styled icon from Orion Icon Library.</desc>
  <circle data-name="layer2"
  cx="32" cy="32" r="30" fill="none" stroke="#33cc33" stroke-linecap="round"
  stroke-miterlimit="10" stroke-width="2" stroke-linejoin="round"></circle>
  <path data-name="layer1" fill="none" stroke="#003399" stroke-linecap="round"
  stroke-miterlimit="10" stroke-width="2" d="M32 10v23l13 7" stroke-linejoin="round"></path>
</svg>