<svg xmlns="http://www.w3.org/2000/svg" viewBox="0 0 64 64" aria-labelledby="title"
aria-describedby="desc" role="img" xmlns:xlink="http://www.w3.org/1999/xlink">
  <title>Update</title>
  <desc>A line styled icon from Orion Icon Library.</desc>
  <path data-name="layer2"
  d="M31.933 49.458l17.255-18.406a3 3 0 1 0-4.377-4.104L35 37.414V5a3 3 0 0 0-6 0v32.066l-9.75-11.05a3 3 0 1 0-4.5 3.969z"
  fill="none" stroke="#33cc33" stroke-miterlimit="10" stroke-width="2" stroke-linejoin="round"
  stroke-linecap="round"></path>
  <path data-name="layer1" d="M55 40a3 3 0 0 0-3 3v13H12V43a3 3 0 0 0-6 0v16a3 3 0 0 0 3 3h46a3 3 0 0 0 3-3V43a3 3 0 0 0-3-3z"
  fill="none" stroke="#003399" stroke-miterlimit="10" stroke-width="2" stroke-linejoin="round"
  stroke-linecap="round"></path>
</svg>