<svg xmlns="http://www.w3.org/2000/svg" viewBox="0 0 64 64" aria-labelledby="title"
aria-describedby="desc" role="img" xmlns:xlink="http://www.w3.org/1999/xlink">
  <title>Update Shopping Cart</title>
  <desc>A line styled icon from Orion Icon Library.</desc>
  <path data-name="layer2"
  fill="none" stroke="#33cc33" stroke-miterlimit="10" stroke-width="2" d="M52.4 50l4.6 5 5-5m-24 0l-5-5-4.6 5"
  stroke-linejoin="round" stroke-linecap="round"></path>
  <path data-name="layer2" d="M50.9 60.6a11.8 11.8 0 0 1-14.1-2.1A12.1 12.1 0 0 1 34 46m5.6-6.6a11.8 11.8 0 0 1 14.1 2.1A12.1 12.1 0 0 1 56.4 54"
  fill="none" stroke="#33cc33" stroke-miterlimit="10" stroke-width="2" stroke-linejoin="round"
  stroke-linecap="round"></path>
  <path data-name="layer1" fill="none" stroke="#003399" stroke-miterlimit="10"
  stroke-width="2" d="M53.9 41.9L58 22M6.1 22L12 52h10m4-50L8.1 22M38 2l18 20M2 22h60"
  stroke-linejoin="round" stroke-linecap="round"></path>
</svg>