<svg xmlns="http://www.w3.org/2000/svg" viewBox="0 0 64 64" aria-labelledby="title"
aria-describedby="desc" role="img" xmlns:xlink="http://www.w3.org/1999/xlink">
  <title>Vimeo</title>
  <desc>A color styled icon from Orion Icon Library.</desc>
  <path data-name="layer1"
  d="M53.9 4.994c-8.1 0-14.5 5.3-17.3 15.2 3-1.4 8.4-2.2 8.9 2.8.4 5-7.1 17.8-10.4 17.8s-5.7-14.5-6.6-21.1c-.8-6.7-2.4-14-8.6-14-6.3 0-14.3 9.8-19.9 14.2l2.9 4s4.2-3.3 5.6-3c3.8 1 7 16.4 8.7 22.3s3.7 17.8 11.9 17.8c13.1 0 34.9-32.6 34.9-43.3 0-7-2-12.7-10.1-12.7z"
  fill="#69b4e5"></path>
</svg>