<svg viewBox="0 0 64 64" xmlns="http://www.w3.org/2000/svg" aria-labelledby="title"
aria-describedby="desc" role="img" xmlns:xlink="http://www.w3.org/1999/xlink">
  <title>Woman Symbol</title>
  <desc>A line styled icon from Orion Icon Library.</desc>
  <path stroke-width="2"
  stroke-miterlimit="10" stroke="#33cc33" fill="none" d="M37.998 48.002V59a3 3 0 0 1-3 3h-5.996a3 3 0 0 1-3-3V48.002h-8.004L24.002 25c.477-1.62 1.344-3 3-3h9.996c1.656 0 2.553 1.432 3 3l6.004 23z"
  data-name="layer2" stroke-linejoin="round" stroke-linecap="round"></path>
  <path stroke-width="2" stroke-miterlimit="10" stroke="#003399"
  fill="none" d="M39 9a7 7 0 0 0-14 0c-.095 1.905-.531 5.314-3.031 7h20.045C39.687 14.431 39.037 9.647 39 9z"
  stroke-linejoin="round" stroke-linecap="round"></path>
</svg>