<svg viewBox="0 0 64 64" xmlns="http://www.w3.org/2000/svg" aria-labelledby="title"
aria-describedby="desc" role="img" xmlns:xlink="http://www.w3.org/1999/xlink">
  <title>Woman</title>
  <desc>A line styled icon from Orion Icon Library.</desc>
  <path stroke-width="2"
  stroke-miterlimit="10" stroke="#33cc33" fill="none" d="M32 2c-6.627 0-13.992 4-13.992 14.399V26c0 7.18 3.27 13.379 8 16.267m11.984 0c4.73-2.888 8-9.087 8-16.267v-9.601C45.992 6 38.627 2 32 2"
  data-name="layer2" stroke-linejoin="round" stroke-linecap="round"></path>
  <path stroke-width="2" stroke-miterlimit="10" stroke="#33cc33"
  fill="none" d="M46 18C26 18 26 3.174 26 3.174S27.416 20 18 20m27.473 30.357C39.003 48.835 39 45.697 39 44v-2M28 62h8M25 42v2c0 1.684-.002 4.813-6.794 6.333M18.008 26S17 42 13 46c4 4 4.926 4.394 4.926 4.394"
  data-name="layer2" stroke-linejoin="round" stroke-linecap="round"></path>
  <path stroke-width="2" stroke-miterlimit="10" stroke="#33cc33"
  fill="none" d="M45.992 26S47 42 51 46c-4 4-6.095 4.217-6.095 4.217" data-name="layer2"
  stroke-linejoin="round" stroke-linecap="round"></path>
  <path stroke-width="2" stroke-miterlimit="10" stroke="#003399"
  fill="none" d="M62 62a13.788 13.788 0 0 0-12.422-11 30.574 30.574 0 0 1-4.105-.643L36 62zM13.61 51A12.46 12.46 0 0 0 2 62h26l-9.794-11.667a34.259 34.259 0 0 1-4.597.667z"
  data-name="layer1" stroke-linejoin="round" stroke-linecap="round"></path>
</svg>