<svg xmlns="http://www.w3.org/2000/svg" viewBox="0 0 64 64" aria-labelledby="title"
aria-describedby="desc" role="img" xmlns:xlink="http://www.w3.org/1999/xlink">
  <title>Wrench</title>
  <desc>A line styled icon from Orion Icon Library.</desc>
  <path data-name="layer1"
  d="M61.949 12.739l-6.973 4.406a1.3 1.3 0 0 1-1.532-.1l-2.875-2.4A1.3 1.3 0 0 1 50.15 14l-.913-3.2a1.3 1.3 0 0 1 .606-1.49l7.967-4.563a11.738 11.738 0 0 0-19.2 10.428 4.011 4.011 0 0 1-1.1 3.363L18.544 37.514a3.98 3.98 0 0 1-3.339 1.1 11.542 11.542 0 0 0-1.466-.094A11.658 11.658 0 0 0 2.147 52.029l7.92-5a1.3 1.3 0 0 1 1.532.1l2.875 2.4a1.3 1.3 0 0 1 .419.644l.913 3.2a1.3 1.3 0 0 1-.606 1.49l-8.439 4.822a11.671 11.671 0 0 0 7.731 2.291A11.734 11.734 0 0 0 25.375 48.71a3.945 3.945 0 0 1 1.079-3.337l18.9-18.9a3.964 3.964 0 0 1 3.349-1.1A11.737 11.737 0 0 0 62 13.739c0-.339-.023-.669-.051-1z"
  fill="none" stroke="#003399" stroke-linecap="round" stroke-miterlimit="10"
  stroke-width="2" stroke-linejoin="round"></path>
</svg>